<svg width="7" height="8" viewBox="0 0 7 8" fill="none" xmlns="http://www.w3.org/2000/svg">
<path d="M6.22215 0.00195312L3.50016 2.72437L0.777852 0.00195312L0 0.779769L2.72231 3.50218L0 6.22427L0.777852 7.00195L3.50016 4.2797L6.22215 7.00195L7 6.22427L4.27769 3.50218L7 0.779769L6.22215 0.00195312Z" fill="#002349"/>
</svg>
